<?xml version="1.0" encoding="utf-8"?>
<!-- Generator: Adobe Illustrator 23.0.1, SVG Export Plug-In . SVG Version: 6.00 Build 0)  -->
<svg version="1.1" id="Capa_1" xmlns="http://www.w3.org/2000/svg" xmlns:xlink="http://www.w3.org/1999/xlink" x="0px" y="0px"
	 viewBox="0 0 123 110" style="enable-background:new 0 0 123 110;" xml:space="preserve">
<style type="text/css">
	.st0{fill:#8FA3B0;}
</style>
<g>
	<path class="st0" d="M107.6,55L107.6,55c0-7.9-6.4-14.4-14.2-14.4H29.6c-7.9,0-14.2,6.4-14.2,14.4l0,0c0,7.9,6.4,14.4,14.2,14.4
		h63.7C101.2,69.4,107.6,62.9,107.6,55 M42.2,52.7c-0.1,7.5-4.7,12.2-11.2,12.2c-4,0.3-9.1-2.1-9.2-8.3c0.3-7.6,5.6-12,11.2-11.9
		C37.8,44.7,42.2,47.3,42.2,52.7 M67,56l-1.6,7.3c0,0.3,0,0.4,0.1,0.7c0.1,0.3,0.1,0.4,0.3,0.5h-5.9L59.8,64c0,0-1.5,0.9-3.7,0.9
		c-2.5,0-5.1-1.5-5.1-4c-0.1-5.3,6.1-4.9,9.6-5.7c1.2-0.3,1.6-1.6,0.1-1.6c-0.5,0-1.7,0.1-2.3,1.5h-7.9c-1,0.1-2.1,1.2-2.4,2.3
		l-1.3,7.2h-5.9L44,50.5h4.7l0.3,1.3c0,0,2.4-2.8,5.1-1.3l-0.8,2.5c1.2-2.3,5.7-3.2,8-3.1C67.2,50.4,67.8,52.8,67,56 M76.7,45
		l-4,19.5h-5.9L71.2,45C71.2,45,76.7,45,76.7,45z M97.1,54.7c3.5,2.5,2.2,9.8-5.7,9.8H80.1l1.9-8.3h-4.4l0.7-4h4.5l1.6-7.2h9.7
		C101.2,45,100.7,53.1,97.1,54.7 M104.8,55.1c0,1.5-1.2,2.7-2.7,2.7c-1.5,0-2.7-1.2-2.7-2.7s1.2-2.7,2.7-2.7
		C103.6,52.5,104.8,53.7,104.8,55.1 M104.2,55.1c0-1.2-0.9-2-2-2s-2,0.8-2,2s0.8,2,2,2C103.3,57.1,104.2,56.3,104.2,55.1
		 M103.6,54.6c-0.1,0.5-0.4,0.7-0.8,0.7l0.4,1.2h-0.7l-0.4-1.2h-0.4l-0.1,1.2h-0.7l0.4-2.8h1.3C103.3,53.7,103.6,53.8,103.6,54.6
		 M102.4,54.9c0.3,0,0.4-0.1,0.5-0.4c0.1-0.3-0.3-0.3-0.5-0.3h-0.5l-0.1,0.7H102.4z"/>
	<path class="st0" d="M87.9,56.3l-0.7,3.3H90c3.7,0,3.7-3.3,0.9-3.3H87.9z"/>
	<path class="st0" d="M89.2,49.6l-0.7,3.1h2.7c3.5,0,3.5-3.1,0.8-3.1C92.2,49.6,89.2,49.6,89.2,49.6z"/>
	<path class="st0" d="M60.8,58.2C52.6,59,59.6,64.5,60.8,58.2"/>
	<path class="st0" d="M28,56.3c0.1-4.9,3.1-6.8,4.7-6.8c1.9,0,3.5,1.1,3.3,4.1c-0.1,3.3-2.4,6.9-4.9,6.7C29.5,60.3,28,59.3,28,56.3"
		/>
</g>
</svg>
